<!-- Generator: Adobe Illustrator 24.0.0, SVG Export Plug-In  -->
<svg version="1.1" xmlns="http://www.w3.org/2000/svg" xmlns:xlink="http://www.w3.org/1999/xlink" x="0px" y="0px" width="95.96px"
	 height="171.21px" viewBox="0 0 95.96 171.21" style="enable-background:new 0 0 95.96 171.21;" xml:space="preserve">
<style type="text/css">
	.st0{fill:#FE6B52;}
	.st1{opacity:0.47;fill:#FE6B52;}
	.st2{fill:#33435C;}
	.st3{fill:#5D7D1A;}
	.st4{fill:#4A620C;}
	.st5{opacity:0.5;fill:#FFFFFF;}
</style>
<defs>
</defs>
<g>
	<path class="st0" d="M5.18,107.65l8.36,50.21c0,7.34,4.67,13.35,10.38,13.35h29.25c5.71,0,10.38-6.01,10.38-13.35l10.15-50.21H5.18
		z"/>
	<path class="st1" d="M62.23,159.11c-11.94,6.93-27.65,0.56-36.95-7.96c-10.6-9.72-13.81-23.21-18.85-35.97l7.11,42.69
		c0,7.34,4.67,13.35,10.38,13.35h29.25c5.6,0,10.2-5.79,10.37-12.94C63.12,158.56,62.68,158.85,62.23,159.11z"/>
	<path class="st0" d="M73.61,107.76c0,2.38-15.28,4.31-34.14,4.31s-34.14-1.93-34.14-4.31c0-2.38,15.28-4.31,34.14-4.31
		S73.61,105.38,73.61,107.76z"/>
	<ellipse class="st2" cx="39.48" cy="106.85" rx="26.39" ry="2.42"/>
	<g>
		<g>
			<g>
				<path class="st3" d="M37.94,73.88c-9.69-2.57-16.29-10.97-18.51-19.55c-2.22-8.59-0.85-17.44,0.53-26.07
					c1.5-9.42,3-18.84,4.5-28.26c10.98,9.35,19.16,21.16,23.46,33.9c1.72,5.08,2.83,10.34,2.57,15.58
					c-0.46,9.13-5.29,17.94-13.1,23.88"/>
			</g>
			<path class="st2" d="M35.55,68.84c1.03,9.03,1.92,18.08,2.77,27.13c0.43,4.37,0.78,8.74,1.13,13.11c0.18,0,0.37,0,0.55,0.01
				c-0.21-4.4-0.51-8.8-0.83-13.19c-0.68-9.07-1.57-18.13-2.52-27.17c-1.03-9.04-2.06-18.08-3.27-27.09
				c-1.2-9.02-2.46-18.02-3.91-27l3.06,27.11C33.56,50.77,34.61,59.8,35.55,68.84z"/>
		</g>
		<g>
			<g>
				<path class="st3" d="M27.38,96.12c-6.03,1.2-11.93-1.64-15.47-5.77c-3.54-4.13-5.18-9.38-6.75-14.5
					C3.44,70.26,1.72,64.67,0,59.07c8.57,2.18,16.27,6.48,22.08,12.33c2.32,2.33,4.35,4.93,5.63,7.89
					c2.22,5.15,1.93,11.31-0.77,16.69"/>
			</g>
			<path class="st2" d="M34.15,109.15c0.19,0,0.38-0.01,0.57-0.01c-0.24-0.41-0.47-0.82-0.71-1.22c-2.82-4.81-5.76-9.56-8.73-14.29
				c-3.01-4.7-6.02-9.4-9.12-14.04c-3.1-4.64-6.22-9.26-9.45-13.82l9.01,14.1c3,4.7,6.02,9.39,8.98,14.12
				c3.01,4.7,5.94,9.44,8.86,14.19C33.76,108.5,33.95,108.83,34.15,109.15z"/>
		</g>
		<g>
			<g>
				<path class="st4" d="M45.09,89.94c7.52,3.97,16.47,2.52,22.78-1.56c6.32-4.08,10.55-10.39,14.66-16.57
					c4.48-6.74,8.96-13.48,13.43-20.22c-12.22-0.48-24.11,2.19-34.12,7.66c-3.99,2.18-7.71,4.82-10.56,8.24
					c-4.96,5.96-7.01,14.23-5.55,22.43"/>
			</g>
			<path class="st2" d="M65.03,65.75c-5.86,3.92-10.99,8.98-14.9,14.88c-1.92,2.96-3.64,6.07-4.95,9.36
				c-1.34,3.26-2.46,6.63-3.16,10.08c-0.18,0.86-0.38,1.72-0.54,2.59l-0.39,2.61c-0.23,1.28-0.33,2.58-0.44,3.87
				c0.19,0.01,0.39,0.02,0.58,0.04c0.37-3,0.9-5.98,1.62-8.91c1.62-6.76,4.33-13.27,8.2-19.02c3.76-5.83,8.8-10.78,14.46-14.79
				c2.84-2.01,5.85-3.77,9.01-5.24c3.14-1.51,6.42-2.76,9.81-3.62C77.46,58.93,70.9,61.86,65.03,65.75z"/>
		</g>
	</g>
	<path class="st5" d="M6.66,117.57c2.7,0.59,5.4,1.14,8.12,1.55c2.71,0.47,5.44,0.84,8.17,1.16c5.46,0.63,10.95,1.03,16.44,1.05
		c5.49,0.14,10.98-0.29,16.43-0.94l4.07-0.62c1.36-0.2,2.68-0.58,4.03-0.85c2.72-0.46,5.3-1.44,7.98-2.14
		c-5.12,2.05-10.48,3.59-15.95,4.46c-1.36,0.29-2.74,0.38-4.12,0.55c-1.38,0.16-2.75,0.33-4.14,0.38c-1.38,0.08-2.77,0.18-4.15,0.23
		l-4.16,0.04c-5.54-0.12-11.07-0.51-16.54-1.32C17.37,120.3,11.93,119.21,6.66,117.57z"/>
	<path class="st5" d="M7.45,122.32c2.58,0.87,5.19,1.65,7.84,2.26c1.31,0.35,2.65,0.61,3.97,0.91c1.33,0.27,2.67,0.5,4,0.75
		c5.35,0.89,10.76,1.41,16.17,1.41c1.35-0.02,2.71,0.05,4.06-0.03l4.05-0.25c1.35-0.07,2.68-0.33,4.03-0.49l2.01-0.27
		c0.67-0.09,1.33-0.26,1.99-0.38l3.98-0.81l3.9-1.15c0.65-0.19,1.31-0.36,1.96-0.56l1.9-0.73l3.82-1.45l-3.71,1.72l-1.86,0.85
		c-0.64,0.24-1.29,0.46-1.93,0.68l-3.89,1.31l-3.99,0.97c-5.35,1.17-10.84,1.75-16.32,1.69c-5.48-0.09-10.95-0.6-16.31-1.68
		C17.74,125.98,12.45,124.49,7.45,122.32z"/>
</g>
</svg>
